…
<br>
 
```r
group_by(hflights, Year, Month, DayofMonth)
```

```
## Source: local data frame [227,496 x 21]
## Groups: Year, Month, DayofMonth [365]
## 
##     Year Month DayofMonth DayOfWeek DepTime ArrTime UniqueCarrier FlightNum TailNum
## *  <int> <int>      <int>     <int>   <int>   <int>         <chr>     <int>   <chr>
## 1   2011     1          1         6    1400    1500            AA       428  N576AA
## 2   2011     1          2         7    1401    1501            AA       428  N557AA
## 3   2011     1          3         1    1352    1502            AA       428  N541AA
## 4   2011     1          4         2    1403    1513            AA       428  N403AA
## 5   2011     1          5         3    1405    1507            AA       428  N492AA
## 6   2011     1          6         4    1359    1503            AA       428  N262AA
## 7   2011     1          7         5    1359    1509            AA       428  N493AA
## 8   2011     1          8         6    1355    1454            AA       428  N477AA
## 9   2011     1          9         7    1443    1554            AA       428  N476AA
## 10  2011     1         10         1    1443    1553            AA       428  N504AA
## # ... with 227,486 more rows, and 12 more variables: ActualElapsedTime <int>, AirTime <int>,
## #   ArrDelay <int>, DepDelay <int>, Origin <chr>, Dest <chr>, Distance <int>, TaxiIn <int>,
## #   TaxiOut <int>, Cancelled <int>, CancellationCode <chr>, Diverted <int>
```
…
